{
    "alias": "invoice-modeling",
    "icon": "fa fa-cog",
    "version": "1.0.0",
    "active": 1,
    "providers": [
        "Modules\\InvoiceModeling\\Providers\\Event",
        "Modules\\InvoiceModeling\\Providers\\Main"
    ],
    "aliases": {},
    "files": [],
    "requires": [],
    "reports": [],
    "widgets": [],
    "settings": [],
    "extra-modules": {}
}
